{
    "list": [{
        "name": "Krishna",
        "phone": "12344",
        "email": "krishna@glarimy.com"
    }, {
        "name": "Mohan",
        "phone": "6789",
        "email": "mohan@glarimy.com"
    }, {
        "name": "Koyya",
        "phone": "125433",
        "email": "koyya@glarimy.com"
    }] 
}